<?xml version="1.0" standalone="no"?>
<!DOCTYPE svg PUBLIC "-//W3C//DTD SVG 1.1//EN" "http://www.w3.org/Graphics/SVG/1.1/DTD/svg11.dtd">
<svg xmlns="http://www.w3.org/2000/svg">
<metadata>Copyright (C) 2016 by original authors @ fontello.com</metadata>
<defs>
<font id="iconfont" horiz-adv-x="1000" >
<font-face font-family="iconfont" font-weight="400" font-stretch="normal" units-per-em="1000" ascent="850" descent="-150" />
<missing-glyph horiz-adv-x="1000" />
<glyph glyph-name="menu" unicode="&#xe800;" d="M857 100v-71q0-15-10-25t-26-11h-785q-15 0-25 11t-11 25v71q0 15 11 25t25 11h785q15 0 26-11t10-25z m0 286v-72q0-14-10-25t-26-10h-785q-15 0-25 10t-11 25v72q0 14 11 25t25 10h785q15 0 26-10t10-25z m0 285v-71q0-15-10-25t-26-11h-785q-15 0-25 11t-11 25v71q0 15 11 26t25 10h785q15 0 26-10t10-26z" horiz-adv-x="857.1" />
<glyph glyph-name="right-dir" unicode="&#xe801;" d="M0 580l400-230-400-230 0 460z" horiz-adv-x="400" />
<glyph glyph-name="left-dir" unicode="&#xe802;" d="M400 580l0-460-400 230z" horiz-adv-x="400" />
<glyph glyph-name="down-dir" unicode="&#xe803;" d="M460 550l-230-400-230 400 460 0z" horiz-adv-x="460" />
<glyph glyph-name="up-dir" unicode="&#xe804;" d="M0 150l230 400 230-400-460 0z" horiz-adv-x="460" />
<glyph glyph-name="up-micro" unicode="&#xe805;" d="M471 231h-471l235 236z" horiz-adv-x="471" />
<glyph glyph-name="down-micro" unicode="&#xe806;" d="M235 231l-235 236h471z" horiz-adv-x="471" />
<glyph glyph-name="linkedin" unicode="&#xe807;" d="M195 501v-553h-184v553h184z m12 171q0-41-29-68t-75-27h-1q-46 0-74 27t-28 68q0 41 29 68t75 27 74-27 29-68z m650-407v-317h-183v296q0 59-23 92t-71 33q-35 0-58-19t-36-48q-6-17-6-45v-309h-184q1 223 1 361t0 165l-1 27h184v-80h-1q11 18 23 31t31 29 49 24 64 9q95 0 153-63t58-186z" horiz-adv-x="857.1" />
<glyph glyph-name="facebook" unicode="&#xe808;" d="M535 843v-147h-87q-48 0-65-20t-17-60v-106h164l-22-165h-142v-424h-171v424h-142v165h142v122q0 104 58 161t155 57q82 0 127-7z" horiz-adv-x="571.4" />
<glyph glyph-name="twitter" unicode="&#xe809;" d="M904 622q-37-54-90-93 0-8 0-23 0-73-21-145t-64-139-103-117-144-82-181-30q-151 0-276 81 19-2 43-2 126 0 224 77-59 1-105 36t-64 89q19-3 34-3 24 0 48 6-63 13-104 62t-41 115v2q38-21 82-23-37 25-59 64t-22 86q0 49 25 91 68-83 164-133t208-55q-5 21-5 41 0 75 53 127t127 53q79 0 132-57 61 12 114 44-20-64-79-100 52 6 104 28z" horiz-adv-x="928.6" />
<glyph glyph-name="pinterest" unicode="&#xe80a;" d="M857 350q0-117-57-215t-156-156-215-58q-62 0-122 18 33 52 43 92 5 19 31 118 11-22 40-38t64-16q67 0 120 38t83 105 29 151q0 64-34 119t-96 91-142 36q-59 0-110-17t-86-43-61-61-37-72-12-75q0-58 22-102t66-62q16-7 21 11 1 4 4 17t5 17q3 13-6 24-29 34-29 84 0 84 58 145t153 61q84 0 131-46t48-119q0-95-39-161t-98-67q-34 0-54 24t-13 59q4 19 15 52t16 57 7 43q0 27-15 46t-43 18q-35 0-59-31t-24-80q0-40 14-68l-55-233q-10-39-7-99-115 51-186 157t-71 236q0 117 58 215t155 156 216 58 215-58 156-156 57-215z" horiz-adv-x="857.1" />
<glyph glyph-name="instagram" unicode="&#xe80b;" d="M760 54v362h-75q11-35 11-73 0-71-36-130t-97-94-134-35q-110 0-188 76t-78 183q0 38 11 73h-79v-362q0-14 10-24t25-10h596q14 0 24 10t10 24z m-158 298q0 69-51 118t-122 49q-71 0-121-49t-51-118 51-118 121-49q72 0 122 49t51 118z m158 201v92q0 15-11 27t-27 11h-98q-16 0-27-11t-11-27v-92q0-17 11-28t27-11h98q16 0 27 11t11 28z m97 116v-638q0-45-32-77t-78-33h-637q-45 0-78 33t-32 77v638q0 45 32 77t78 33h637q45 0 78-33t32-77z" horiz-adv-x="857.1" />
<glyph glyph-name="angle-left" unicode="&#xe80c;" d="M350 546q0-7-6-12l-219-220 219-219q6-6 6-13t-6-13l-28-28q-5-5-12-5t-13 5l-260 260q-6 6-6 13t6 13l260 260q5 6 13 6t12-6l28-28q6-5 6-13z" horiz-adv-x="357.1" />
<glyph glyph-name="angle-right" unicode="&#xe80d;" d="M332 314q0-7-6-13l-260-260q-5-5-12-5t-13 5l-28 28q-6 6-6 13t6 13l219 219-219 220q-6 5-6 12t6 13l28 28q5 6 13 6t12-6l260-260q6-5 6-13z" horiz-adv-x="357.1" />
<glyph glyph-name="angle-up" unicode="&#xe80e;" d="M600 189q0-7-6-13l-28-27q-5-6-12-6t-13 6l-220 219-219-219q-5-6-13-6t-13 6l-27 27q-6 6-6 13t6 13l260 260q5 6 12 6t13-6l260-260q6-5 6-13z" horiz-adv-x="642.9" />
<glyph glyph-name="angle-down" unicode="&#xe80f;" d="M600 439q0-7-6-13l-260-260q-5-5-13-5t-12 5l-260 260q-6 6-6 13t6 13l27 28q6 6 13 6t13-6l219-219 220 219q5 6 13 6t12-6l28-28q6-5 6-13z" horiz-adv-x="642.9" />
<glyph glyph-name="search" unicode="&#xe810;" d="M746 209l254-255-105-105-254 254q-106-72-232-72-169 0-289 120t-120 289 120 289 289 120 289-120 120-289q0-127-72-231z m-65 231q0 113-79 193t-193 80-193-80-80-193 80-192 193-80 193 80 79 192z" horiz-adv-x="1000" />
<glyph glyph-name="pause" unicode="&#xe811;" d="M18-97l0 894 223 0 0-894-223 0z m446 0l0 894 224 0 0-894-224 0z" horiz-adv-x="705" />
<glyph glyph-name="right" unicode="&#xe812;" d="M964 352q0-8-5-14l-215-197q-9-8-19-4-11 5-11 17v125h-696q-8 0-13 5t-5 12v108q0 7 5 12t13 5h696v125q0 12 11 17t19-3l215-195q5-6 5-13z" horiz-adv-x="1000" />
</font>
</defs>
</svg>